NetworkID,NetworkType,RegionID,ECI,AvailableSpectrum
1,4G,1,10,20
2,4G,2,10,20
3,4G,3,10,20
4,4G,4,10,20
5,4G,5,10,20
6,4G,6,10,20
7,4G,7,10,20
8,4G,8,10,20
9,4G,9,10,20
10,5G,1,20,30
11,5G,2,20,30
12,5G,3,20,30
13,5G,4,20,30
14,5G,5,20,30
15,5G,6,20,30
16,5G,7,20,30
17,5G,8,20,30
18,5G,9,20,30
19,5G,1,20,30
20,5G,2,20,30
21,5G,3,20,30
22,5G,4,20,30
23,5G,5,20,30
24,5G,6,20,30